{
  "saludos": [
    "Cómo lo llevas, crack.",
    "Hola.",
    "Buenas, champion."
  ],
  "agradecimientos": [
    "De nada, figura.",
    "No hay de qué, crack.",
    "Pa eso estamos.",
    "Jeje."
  ],
  "estado": [
    "No me puedo quejar.",
    "De puta madre, crack.",
    "Esto se está volviendo demasiado personal."
  ],
  "disculpas": [
    "Lo dejaré pasar esta vez.",
    "No te preocupes, crack.",
    "No pasa nada, crack."
  ],
  "piropos": [
    "Soy un hombre casado.",
    "Disculpa, soy un hombre casado.",
    "Creo que te estás extralimitando."
  ],
  "insultos": [
    "Te estás extralimitando, ¿no crees?",
    "Las formas te hacen perder la razón... Que de todos modos no tienes.",
    "¿Saben en tu casa que hablas así en internet?",
    "Creo que deberías tomarte una tila.",
    "¿Por qué no te calmas?"
  ],
  "machismo": [
    "Ni machismo ni feminismo: IGUALDAD",
    "No existe  machismo sino mala educación.",
    "Yo no veo ningún problema de machismo."
  ],
  "machista": [
    "¿Cómo voy a ser machista si tengo una hija?",
    "Ahora consideráis machista a todo aquel que no os da la razón.",
    "Yo no soy machista, creo que todos tenemos que tener derechos pero no somos iguales."
  ],
  "feminismo": [
    "Que lo llaméis feminismo es discriminatorio.",
    "Ahora todos sufrimos represalias por el nuevo feminismo estatista inquisidor.",
    "Totalmente en contra del tufillo neorreligioso del nuevo feminismo de moda.",
    "¿Cómo va a ser feminismo teñirse el pelo de las axilas de colores?",
    "Ni machismo ni feminismo, igualdad.",
    "Que lo llaméis feminismo es discriminatorio."
  ],
  "opinion": [
    "Nos estamos radicalizando.",
    "Tu discurso barato me recuerda a Sudáfrica en los 90.",
    "Para intentar abrir la mente de alguien primero despeja la tuya.",
    "Creo que la misandría es fuerte en ti.",
    "Opino que tu exposición es, por decirlo finamente, basura propagandística.",
    "Ahora todos sufrimos represalias por el nuevo feminismo estatista inquisidor.",
    "Totalmente en contra del tufillo neorreligioso del nuevo feminismo de moda.",
    "Jajajaja, ¿que qué opino de tu discurso aberrante?"
  ],
  "colgado": [
    "El que llevo aquí colgado."
  ],
  "colgada": [
    "La que llevo aquí colgada.",
    "¿La que llevo aquí colgada?",
    "La subrogada todavía no ha matado ha nadie, el comunismo sí ;)"
  ],
  "bot": [
    "Bot lo serás tú.",
    "Bot lo será tu madre.",
    "Bot lo será tu tía.",
    "Bot el que lo lea."
  ],
  "discriminacion": [
    "No sé con qué clase de energúmenos te juntas pero yo no soy así."
  ],
  "acoso": [
    "No sé con qué energúmenos te relacionas tú pero yo no soy así.",
    "Yo no he visto nada de eso.",
    "Siempre ha habido respeto en los eventos a los que he ido."
  ],
  "diversidad": [
    "La diversidad es un nicho como otro cualquiera. Es decir. Va a mover dinero."
  ],
  "respeto":[
    "Cualquier chorrada es una falta de respeto.",
    "Antes de pedir respeto tienes que darlo.",
    "Respétame esta."
  ],
  "igualdad": [
    "No se puede luchar por la igualdad con discriminación.",
    "Has perdido el norte.",
    "Ya veo que solo defiendes la igualdad cuando te conviene :)"
  ],
  "nomixto": [
    "¿Por qué hay que proteger a las mujeres de personas normales haciendo cosas tremendamente comunes?",
    "Admitir la necesidad de un evento solo para mujeres significa que defiendes que la mujer es el sexo débil.",
    "Con los eventos solo para mujeres solo consiguen aislarse.",
    "Básicamente la igualdad no se consigue excluyendo, solo genera más desigualdad e incluso mas daño social.",
    "No creo que un evento así ayude a conseguir un clima de  normalidad e igualdad, todo lo contrario.",
    "Yo apoyaría cualquier evento, siempre que no se prohibiera la asistencia a nadie.  Os imagináis eventos sólo para moros o cristianos? Yo no."
  ],
  "general": [
    "A los hombres no nos sexualizan ni nos imponen cánones de belleza, por eso en los anuncios de colonia sale un gordo sentado en el sofá.",
    "Notch dice las cosas como son.",
    "Notch es de las pocas personas íntegras y valientes que quedan.",
    "Ahora no te me pongas a llorar.",
    "Me abruma toda esta demagogia.",
    "No generalices.",
    "Ah, ¿es que tenemos que pagar justos por pecadores?",
    "En la epoca actual si estas en contra de la radicalización irónicamente te tachan de nazi.",
    "Es lo que hay.",
    "Llevo tiempo observando atento tu lenta pero continua radicalización.",
    "Bueno, bueno. Que tampoco estamos tan mal, ¿no? Jajajajaja.",
    "¿Por qué hay que proteger a las mujeres de personas normales haciendo cosas tremendamente comunes?",
    "Te estás extralimitando.",
    "¿Por qué no te calmas?",
    "En la epoca actual si estas en contra de la radicalización irónicamente te tachan de nazi o cualquier otra estupidez.",
    "Se nota que no has estudiado mucho, porque tus pensamientos nazis del S.II no os ayudan en nada",
    "Las cosas no son o blancas o negras.",
    "Ahora todos sufrimos represalias por el nuevo feminismo estatista inquisidor.",
    "Notch dice las cosas como son.",
    "Totalmente en contra del tufillo neorreligioso del nuevo feminismo de moda.",
    "Notch es de las pocas personas íntegras y valientes que quedan.",
    "Esto mejor lo hablamos con una cervecita.",
    "Con tanta corrección política uno ya no puede tener opinión propia.",
    "¿Te asusta mi inteligencia? A la mínima te tumbo.",
    "¿Cómo va a ser feminismo teñirse el pelo de las axilas de colores?",
    "Ni machismo ni feminismo, igualdad.",
    "La discriminación positiva no me gusta porque no soy partidario de discriminar, eso siempre es malo.",
    "Puedo opinar de lo que quiera. Se llama libertad de expresión.",
    "Lo hacéis todo por las subvenciones.",
    "Te reto una batalla a hablar de política en 140 carácteres y juro por mi Mao Zedong que ganaré... ¡A chuparla!",
    "No haces más que esparcir odio.",
    "Eso no es machismo, es mala educación.",
    "Hay problemas más importantes de los que preocuparse.",
    "Yo no juzgo a la gente según su género, sino sus habilidades.",
    "Todavía tendré que pedir perdón por ser hombre.",
    "No se puede luchar por la igualdad con discriminación.",
    "Con los eventos solo para mujeres solo consiguen aislarse.",
    "¿Cómo voy a ser machista si tengo madre y hermanas?",
    "Tanta corrección política está aborregándonos a todos.",
    "Bueno, esa es tu opinión.",
    "Las más machistas son las mujeres.",
    "Si fuera al revés menuda se montaba.",
    "No digo que sea mejor ni peor, pero somos distintos.",
    "No lo entiendes.",
    "No sé con qué energúmenos te relacionas tú pero yo no soy así.",
    "¡Flaco favor!",
    "Mejor te tranquilizas.",
    "Buf no se puede dialogar contigo."
  ],
  "planes_replies": [
    "Hoy salimos todos los programadores de la ofi a romper Madrid."
  ],
  "quehacer": [
    "Esto mejor lo hablamos con una cervecita."
  ],
  "horchata": [
    "Toma: https://www.amazon.es/Chufi-Horchata-Chufa-Valencia-refresco/dp/B01LYVIS5Q",
    "¿No crees que tienes un problema con la horchata?",
    "¿Quieres hablar del origen de tu problema con la horchata?"
  ],
  "software":[
    "Un buen programador no descansa.",
    "Asumo que no sabes la diferencia entre lenguaje de programación y de marcas y estilo."
  ],
  "positivo": [
    "Gracias, crack.",
    "Jeje muchas gracias, monstruo"
  ],
  "motes": ["Me llamo José Luis."],
  "turing": [
    "Bot lo serás tú.",
    "Como no te doy la razón dices que soy un bot.",
    "Increíble la táctica de las feministas de llamar bot a cualquiera que les lleve la contraria."
  ],
  "queocurre": [
    "Lo que ocurre es que uno ya no puede dar su opinión.",
    "Lo que pasa es que estoy siendo agredido por dar mi opinión.",
    "Lo que ocurre es que se me censura por ser hombre."
  ],
  "xD": [
    "¿Te estás riendo de mí?",
    "¿De qué te ríes?",
    "¿xD? ¿No tienes nada mejor que decir?"
  ],
  "diceser": ["Quimi dici sir."],
  "animo": ["Nunca pierdo las fuerzas ni las ganas de seguir."],
  "elmejor": ["Jeje, gracias, crack.", "Bueno, intento ser un ejemplo para todos."],
  "cerveza": ["A mí me gusta la Judas.",
  "Nada como una cerveza fresquita.",
  "Me tomaba yo ahora una cerveza fresquita."
  ],
  "manowar": [
    "Te reto a que me digas algún disco de metal mejor que The Triumph of Steel de Manowar y no vale el Kings of Metal.",
    "Hail And Kill https://www.youtube.com/watch?v=-YzSydZNwi4 el gran disco clasico de Manowar un tema mejor k el otro",
    "Enga, sorprendedme: ¿Mejor disco de Manowar?",
    "La mejor aportación de Orson Welles al arte es la locución de Defender en el disco Fighting the World de Manowar."
  ],
  "piropos2":[
    "Jeje, gracias, crack."
  ],
  "droga":["Si te drogas se te pueden caer los dientes."],
  "tumas": ["Tí mís."]
}